01 - Parameter sensitivity analysis • SWATplusR
…
Parameter sampling

The Fourier Amplitude Sensitivity Test (FAST) is a method to perform GSA with few model evaluations. It only requires a few simulations when the number of parameters is low and strongly increases to tenth of thousands of model evaluations for more than 20 parameters. To keep the number of model evaluations low we use the 7 selected parameters above.

The FAST method requires a specific parameter sampling design, that is available in fast with the function fast_parameters().

par_fast <- fast_parameters(
  minimum = c(-15, 0.5,  10, -50, -50, 0,  0),
  maximum = c( 10,  50, 100,  50,  50, 1,  1),
    names = par_names) %>%
  as_tibble()

par_fast
#> # A tibble: 167 x 7
#>    `cn2.hru | chan… `lat_ttime.hru … `lat_len.hru | … `k.sol | change…
#>               <dbl>            <dbl>            <dbl>            <dbl>
#>  1          -13.8              44.3              84.3           -29.5 
#>  2          -11.2              32.7              52.3            12.0 
#>  3           -8.67             21.1              20.3            47.0 
#>  4           -6.11              9.45             31.1             5.42
#>  5           -3.55              2.89             63.1           -36.1 
#>  6           -0.994            14.5              95.1           -22.9 
#>  7            1.57             26.1              73.4            18.7 
#>  8            4.13             37.8              41.4            40.4 
#>  9            6.69             49.4              10              -1.20
#> 10            9.25             39.3              42.0           -42.8 
#> # … with 157 more rows, and 3 more variables: `z.sol | change =
#> #   pctchg` <dbl>, `esco.hru | change = absval` <dbl>, `epco.hru | change
#> #   = absval` <dbl>
…
