02 - Parameter sampling and model calibration • SWATplusR
…
Random sampling with runif()

The most basic way to draw random parameter samples is to use the base R function runif(). With runif() you can create a uniformly distributed vector. To draw a specific number of parameter sets with runif() you have to create a vector with that number of random values for each parameter and transform them to their parameter ranges. Below you find a very efficient approach to create a table of parameter combinations using a map*() function from the functional programing package purrr:

n_sample <- 250
par_runif <- map_df(par_bound, ~ runif(n_sample, .x[1], .x[2]))
par_runif
#> # A tibble: 250 x 7
#>    `cn2.hru | chan… `lat_ttime.hru … `lat_len.hru | … `k.sol | change…
#>               <dbl>            <dbl>            <dbl>            <dbl>
#>  1           -0.982            0.828             46.7             1.33
#>  2           -5.45             6.95              51.4           -14.8 
#>  3           -7.30            14.8               86.0           -23.4 
#>  4            1.95             7.21              12.4           -15.6 
#>  5           -2.82            13.0               36.6            47.0 
#>  6          -14.7              5.72              83.5           -41.2 
#>  7           -5.75            41.4               13.4           -25.4 
#>  8          -13.0             46.7               19.8           -31.3 
#>  9          -13.9             23.1               62.6           -44.3 
#> 10            0.174           33.3               29.8           -35.1 
#> # … with 240 more rows, and 3 more variables: `z.sol | change =
#> #   pctchg` <dbl>, `esco.hru | change = absval` <dbl>, `epco.hru | change
#> #   = absval` <dbl>

Random sampling with lhs

In a very similar way you can draw LHS samples using the function randomLHS() from the lhs package. Below you find an efficient example to draw a n_sample = 250 LHS sampled parameter combinations:

n_sample <- 250
n_par <- ncol(par_bound)

par_iter1 <- randomLHS(n = n_sample, k = n_par) %>%
  as_tibble(., .name_repair = "minimal") %>%
  map2_df(., par_bound, ~ (.x * (.y[2] - .y[1]) + .y[1])) %>%
  set_names(names(par_bound))

par_iter1
#> # A tibble: 250 x 7
#>    `cn2.hru | chan… `lat_ttime.hru … `lat_len.hru | … `k.sol | change…
#>               <dbl>            <dbl>            <dbl>            <dbl>
#>  1            0.423            49.5              48.4          -45.6  
#>  2            7.21             37.4              78.4          -44.8  
#>  3            9.11             38.9              90.3           46.0  
#>  4            0.582            21.6              86.8            0.268
#>  5           -9.75              3.84             84.8          -11.7  
#>  6           -4.20             28.7              80.3           19.4  
#>  7            9.45             17.7              62.5          -23.9  
#>  8           -8.93             21.8              74.3          -20.1  
#>  9            7.95              2.29             86.5           -2.96 
#> 10           -9.43             27.3              20.1          -42.6  
#> # … with 240 more rows, and 3 more variables: `z.sol | change =
#> #   pctchg` <dbl>, `esco.hru | change = absval` <dbl>, `epco.hru | change
#> #   = absval` <dbl>
…
#> Building 4 threads in 'Define:/your/path/swatplus_demo/.model_run':
#>  Completed 4 threads in 0S
#> Performing 250 simulations on 4 cores:
#>  Completed 250 simulations in 1M 56S

The updated simulations are again evaluated:

nse_cal2 <- q_cal2$simulation$q_sim %>%
  select(-date) %>%
  map_dbl(., ~NSE(.x/8.64, q_obs_cal$discharge))

To get an overview of the NSE values for the best simulation runs simply run the following command:

sort(nse_cal2, decreasing = T) %>% enframe()
#> # A tibble: 250 x 2
#>    name    value
#>    <chr>   <dbl>
#>  1 run_001 0.764
#>  2 run_137 0.751
#>  3 run_024 0.746
#>  4 run_038 0.745
#>  5 run_203 0.741
#>  6 run_078 0.739
#>  7 run_124 0.737
#>  8 run_149 0.735
#>  9 run_073 0.730
#> 10 run_241 0.729
#> # … with 240 more rows
…
A tabular overview can show a direct comparison of the simulations in the calibration and validation period for the individual runs and their parametrizations:

nse_comp %>% 
  arrange(desc(calibration))
#> # A tibble: 44 x 3
#>    run     calibration validation
#>    <chr>         <dbl>      <dbl>
#>  1 run_001       0.764      0.746
#>  2 run_137       0.751      0.713
#>  3 run_024       0.746      0.689
#>  4 run_038       0.745      0.707
#>  5 run_203       0.741      0.744
#>  6 run_078       0.739      0.706
#>  7 run_124       0.737      0.645
#>  8 run_149       0.735      0.724
#>  9 run_073       0.730      0.699
#> 10 run_241       0.729      0.698
#> # … with 34 more rows
…
