Parameter sampling and model calibration • SWATplusR
…
n_sample <- 250

par_runif <- map_df(par_bound, ~ runif(n_sample, .x[1], .x[2]))

par_runif
#> # A tibble: 250 × 7
#>    `cn2.hru | change = abschg` lat_tti…¹ lat_l…² k.sol…³ awc.s…⁴ esco.…⁵ epco.…⁶
#>                          <dbl>     <dbl>   <dbl>   <dbl>   <dbl>   <dbl>   <dbl>
#>  1                        6.92     29.3     86.7   49.0    -4.76  0.932    0.513
#>  2                      -14.5      22.8     83.9  -39.2     3.80  0.210    0.605
#>  3                        2.91     38.1     19.0    7.93   20.0   0.761    0.351
#>  4                       -4.74     49.6     17.9   26.9    31.3   0.704    0.195
#>  5                       -8.82      5.02    93.9  -45.0   -24.6   0.196    0.719
#>  6                       -5.16     24.5     26.3   39.0   -38.7   0.406    0.665
#>  7                        1.62      7.16    62.0  -35.0    -8.02  0.512    0.206
#>  8                        8.59     42.4     45.5  -48.4    -8.72  0.651    0.887
#>  9                       -2.77     23.0     19.2   16.7   -20.9   0.105    0.691
#> 10                       -9.72     29.2     53.6   42.5    -3.99  0.0445   0.309
#> # … with 240 more rows, and abbreviated variable names
#> #   ¹​`lat_ttime.hru | change = absval`, ²​`lat_len.hru | change = absval`,
#> #   ³​`k.sol | change = pctchg`, ⁴​`awc.sol | change = pctchg`,
#> #   ⁵​`esco.hru | change = absval`, ⁶​`epco.hru | change = absval`
…
sample_lhs <- function(par, n) {
  n_par <- ncol(par)
  
  randomLHS(n = n, k = n_par) %>% # Perform sampling
    as_tibble(., .name_repair = 'minimal') %>% # Convert to a tibble
    set_names(names(par)) %>% # Assign the parameter names with purrr
    map2_df(., par, ~ (.x * (.y[2] - .y[1]) + .y[1])) # Scale parameter ranges
}

par_lhs <- sample_lhs(par_bound, 250)

par_lhs
#> # A tibble: 250 × 7
#>    `cn2.hru | change = abschg` lat_tti…¹ lat_l…² k.sol…³ awc.s…⁴ esco.…⁵ epco.…⁶
#>                          <dbl>     <dbl>   <dbl>   <dbl>   <dbl>   <dbl>   <dbl>
#>  1                      -13.7      43.4     41.4    36.3    2.13 0.0363    0.870
#>  2                       -7.89     47.2     89.2    21.8   31.8  0.261     0.554
#>  3                        8.02     15.6     72.4   -12.5  -19.1  0.671     0.174
#>  4                       -1.23      1.49    81.7    22.9  -35.7  0.619     0.617
#>  5                        6.55     47.4     58.3   -43.5   48.7  0.180     0.586
#>  6                      -13.6      22.3     43.9   -39.0  -24.1  0.990     0.349
#>  7                       -9.97      2.21    94.1    35.3   22.9  0.0453    0.817
#>  8                       -2.17     42.8     44.8    19.7   15.5  0.00974   0.666
#>  9                        2.92     24.3     88.5   -36.5   40.6  0.207     0.312
#> 10                       -5.88     13.9     37.3    17.8  -29.2  0.890     0.393
#> # … with 240 more rows, and abbreviated variable names
#> #   ¹​`lat_ttime.hru | change = absval`, ²​`lat_len.hru | change = absval`,
#> #   ³​`k.sol | change = pctchg`, ⁴​`awc.sol | change = pctchg`,
#> #   ⁵​`esco.hru | change = absval`, ⁶​`epco.hru | change = absval`
…
par_bound <- tibble('esco.hru | change = absval' = c(0, 1),
                    'epco.hru | change = absval' = c(0, 1),
                    'awc.sol | change = relchg' = c(-0.25, 0.25))

We only analyze three parameters here. So it is not necessary to draw
large parameter sets and testing 40 to 100 parameter combinations may be
enough to analyze patterns in ET.

par_et_yld <- sample_lhs(par_bound, 40)

par_et_yld
#> # A tibble: 40 × 3
#>    `esco.hru | change = absval` `epco.hru | change = absval` awc.sol | change …¹
#>                           <dbl>                        <dbl>               <dbl>
#>  1                       0.376                        0.0947              0.234 
#>  2                       0.582                        0.660              -0.0952
#>  3                       0.270                        0.996              -0.0403
#>  4                       0.679                        0.876              -0.0593
#>  5                       0.0775                       0.905              -0.0119
#>  6                       0.780                        0.607              -0.113 
#>  7                       0.195                        0.297              -0.0723
#>  8                       0.0425                       0.130               0.0250
#>  9                       0.918                        0.804              -0.242 
#> 10                       0.574                        0.176               0.0544
#> # … with 30 more rows, and abbreviated variable name
#> #   ¹​`awc.sol | change = relchg`
…
