Getting started with SWATrunR • SWATplusR
…
q_obs <- load_demo(dataset = 'observation')

q_obs

#> # A tibble: 16,437 × 2
#>    date       discharge
#>    <date>         <dbl>
#>  1 1968-01-01      0.16
#>  2 1968-01-02      0.57
#>  3 1968-01-03      0.61
#>  4 1968-01-04      0.37
#>  5 1968-01-05      0.25
#>  6 1968-01-06      0.2 
#>  7 1968-01-07      0.21
#>  8 1968-01-08      0.22
#>  9 1968-01-09      0.18
#> 10 1968-01-10      0.34
#> # … with 16,427 more rows
…
If we have a look at the outputs of all three simulations we see that
they all have the same general structure. The first column is a date
column which is followed by the defined output variables. In the case of
the SWAT+ simulation outputs q_sim_plus the single output
variable that we defined is called flo_out, so the name of
the variable as it is defined in the .txt output file.

q_sim_plus
#> $simulation
#> $simulation$flo_out
#> # A tibble: 3,653 × 2
#>    date        run_1
#>    <date>      <dbl>
#>  1 2003-01-01 0.0924
#>  2 2003-01-02 0.0905
#>  3 2003-01-03 0.0912
#>  4 2003-01-04 0.0908
#>  5 2003-01-05 0.0918
#>  6 2003-01-06 0.0914
#>  7 2003-01-07 0.0922
#>  8 2003-01-08 0.0929
#>  9 2003-01-09 0.0921
#> 10 2003-01-10 0.0926
#> # … with 3,643 more rows
…
For the SWAT2012 model setup we defined to return the discharges of
all three channels in the model setup. In the simulation outputs we can
see now that a suffix number was added to the variable names. These
numbers correspond to the unit IDs in the output table. Thus, you can
directly relate the outputs in R to the respective units in
a model setup.

q_sim_2012
#> $simulation
#> $simulation$FLOW_OUT_1
#> # A tibble: 3,653 × 2
#>    date       run_1
#>    <date>     <dbl>
#>  1 2003-01-01 0.174
#>  2 2003-01-02 0.154
#>  3 2003-01-03 0.150
#>  4 2003-01-04 0.148
#>  5 2003-01-05 0.146
#>  6 2003-01-06 0.145
#>  7 2003-01-07 0.144
#>  8 2003-01-08 0.144
#>  9 2003-01-09 0.143
#> 10 2003-01-10 0.143
#> # … with 3,643 more rows
#> 
#> $simulation$FLOW_OUT_2
#> # A tibble: 3,653 × 2
#>    date        run_1
#>    <date>      <dbl>
#>  1 2003-01-01 0.103 
#>  2 2003-01-02 0.0956
#>  3 2003-01-03 0.0935
#>  4 2003-01-04 0.0921
#>  5 2003-01-05 0.0912
#>  6 2003-01-06 0.0906
#>  7 2003-01-07 0.0901
#>  8 2003-01-08 0.0897
#>  9 2003-01-09 0.0894
#> 10 2003-01-10 0.0890
#> # … with 3,643 more rows
#> 
#> $simulation$FLOW_OUT_3
#> # A tibble: 3,653 × 2
#>    date       run_1
#>    <date>     <dbl>
#>  1 2003-01-01 0.413
#>  2 2003-01-02 0.377
#>  3 2003-01-03 0.369
#>  4 2003-01-04 0.363
#>  5 2003-01-05 0.359
#>  6 2003-01-06 0.357
#>  7 2003-01-07 0.355
#>  8 2003-01-08 0.354
#>  9 2003-01-09 0.353
#> 10 2003-01-10 0.352
#> # … with 3,643 more rows
…
As mentioned above, the only difference between
q_sim_2012 and q_sim_2012_2 is the naming of
the output variables. We defined that the should now be called
q instead of FLOW_OUT. Although the name has
changed the suffix values are the same in this case and is added
automatically by define_output().

q_sim_2012_2
#> $simulation
#> $simulation$q_1
#> # A tibble: 3,653 × 2
#>    date       run_1
#>    <date>     <dbl>
#>  1 2003-01-01 0.174
#>  2 2003-01-02 0.154
#>  3 2003-01-03 0.150
#>  4 2003-01-04 0.148
#>  5 2003-01-05 0.146
#>  6 2003-01-06 0.145
#>  7 2003-01-07 0.144
#>  8 2003-01-08 0.144
#>  9 2003-01-09 0.143
#> 10 2003-01-10 0.143
#> # … with 3,643 more rows
#> 
#> $simulation$q_2
#> # A tibble: 3,653 × 2
#>    date        run_1
#>    <date>      <dbl>
#>  1 2003-01-01 0.103 
#>  2 2003-01-02 0.0956
#>  3 2003-01-03 0.0935
#>  4 2003-01-04 0.0921
#>  5 2003-01-05 0.0912
#>  6 2003-01-06 0.0906
#>  7 2003-01-07 0.0901
#>  8 2003-01-08 0.0897
#>  9 2003-01-09 0.0894
#> 10 2003-01-10 0.0890
#> # … with 3,643 more rows
#> 
#> $simulation$q_3
#> # A tibble: 3,653 × 2
#>    date       run_1
#>    <date>     <dbl>
#>  1 2003-01-01 0.413
#>  2 2003-01-02 0.377
#>  3 2003-01-03 0.369
#>  4 2003-01-04 0.363
#>  5 2003-01-05 0.359
#>  6 2003-01-06 0.357
#>  7 2003-01-07 0.355
#>  8 2003-01-08 0.354
#>  9 2003-01-09 0.353
#> 10 2003-01-10 0.352
#> # … with 3,643 more rows
…
The second part of the simulation outputs provides the
simulation results for the defined output variables in a
tibble. The structure of this table is the same as the one
of the outputs where no parameter changes were implemented. If the
parameter changes should have an effect on the simulation of
flo_out, the simulated values simulated values stored in
simulation should of course be different.

q_sim1$simulation$flo_out
#> # A tibble: 3,653 × 2
#>    date        run_1
#>    <date>      <dbl>
#>  1 2003-01-01 0.0649
#>  2 2003-01-02 0.0365
#>  3 2003-01-03 0.022 
#>  4 2003-01-04 0.0174
#>  5 2003-01-05 0.0153
#>  6 2003-01-06 0.0137
#>  7 2003-01-07 0.0144
#>  8 2003-01-08 0.0135
#>  9 2003-01-09 0.0128
#> 10 2003-01-10 0.0121
#> # … with 3,643 more rows
…
The major difference in the output list is given in the
simulation outputs. simulation is not a single
table as it was the case for the simulations with a single parameter
combination. In the case of multiple simulations with more than one
parameter combination a list of tibbles is
generated. As we can see for q_simn$simulation the output
is organized in three tables each table provides the simulation runs for
each output variable that we defined. Each table in this case has a
date column as its first column followed by the columns
run_1 until run_5 where each run provides the
simulation outputs for each of the 5 parameter combinations.

q_simn$simulation
#> $q_sur
#> # A tibble: 3,653 × 6
#>    date       run_1 run_2 run_3 run_4 run_5
#>    <date>     <dbl> <dbl> <dbl> <dbl> <dbl>
#>  1 2003-01-01 0.3   0.407 0.008 0.01  0.007
#>  2 2003-01-02 0.064 0.093 0.001 0.002 0.001
#>  3 2003-01-03 0.015 0.026 0.001 0.001 0    
#>  4 2003-01-04 0.004 0.01  0     0     0    
#>  5 2003-01-05 0.001 0.004 0     0     0    
#>  6 2003-01-06 0     0.002 0     0     0    
#>  7 2003-01-07 0     0.001 0     0     0    
#>  8 2003-01-08 0     0.001 0     0     0    
#>  9 2003-01-09 0     0.001 0     0     0    
#> 10 2003-01-10 0     0     0     0     0    
#> # … with 3,643 more rows
#> 
#> $q_lat
#> # A tibble: 3,653 × 6
#>    date       run_1 run_2 run_3 run_4 run_5
#>    <date>     <dbl> <dbl> <dbl> <dbl> <dbl>
#>  1 2003-01-01 0.03  0.025 0.013 0.019 0.015
#>  2 2003-01-02 0.029 0.025 0.012 0.019 0.013
#>  3 2003-01-03 0.029 0.024 0.012 0.019 0.012
#>  4 2003-01-04 0.028 0.024 0.011 0.019 0.012
#>  5 2003-01-05 0.028 0.023 0.011 0.019 0.011
#>  6 2003-01-06 0.028 0.023 0.011 0.019 0.011
#>  7 2003-01-07 0.027 0.023 0.01  0.019 0.011
#>  8 2003-01-08 0.027 0.023 0.01  0.018 0.01 
#>  9 2003-01-09 0.027 0.022 0.01  0.018 0.01 
#> 10 2003-01-10 0.026 0.022 0.009 0.018 0.01 
#> # … with 3,643 more rows
#> 
#> $q_cha
#> # A tibble: 3,653 × 6
#>    date        run_1  run_2  run_3   run_4 run_5
#>    <date>      <dbl>  <dbl>  <dbl>   <dbl> <dbl>
#>  1 2003-01-01 0.0831 0.107  0.0956 0.0120  0.125
#>  2 2003-01-02 0.0483 0.0616 0.0976 0.0107  0.128
#>  3 2003-01-03 0.0348 0.0414 0.100  0.00985 0.132
#>  4 2003-01-04 0.0294 0.0327 0.102  0.00930 0.136
#>  5 2003-01-05 0.0254 0.0297 0.104  0.00965 0.138
#>  6 2003-01-06 0.0249 0.0279 0.105  0.00923 0.140
#>  7 2003-01-07 0.0233 0.0252 0.106  0.00885 0.141
#>  8 2003-01-08 0.0219 0.0233 0.107  0.00849 0.142
#>  9 2003-01-09 0.0207 0.0217 0.108  0.00815 0.144
#> 10 2003-01-10 0.0195 0.0220 0.108  0.00782 0.143
#> # … with 3,643 more rows
…
When we have a look at the simulated time series we can see that it
starts in the year 2003 and holds data for 3 years.

sim_set_date
#> $simulation
#> $simulation$flo_out
#> # A tibble: 1,096 × 2
#>    date        run_1
#>    <date>      <dbl>
#>  1 2003-01-01 0.0924
#>  2 2003-01-02 0.0905
#>  3 2003-01-03 0.0912
#>  4 2003-01-04 0.0908
#>  5 2003-01-05 0.0918
#>  6 2003-01-06 0.0914
#>  7 2003-01-07 0.0922
#>  8 2003-01-08 0.0929
#>  9 2003-01-09 0.0921
#> 10 2003-01-10 0.0926
#> # … with 1,086 more rows
…
sim_stprint <- run_swatplus(project_path = path_plus,
                            output = define_output('channel_sd_day', 'flo_out', 1),
                            start_date = 20001101,
                            end_date = 20051031,
                            start_date_print = 20031101)
#> Building 1 thread in 'Define:/your/path/swatplus_demo/.model_run': 
#>  Completed 1 thread in 0S                                                   
#> Performing 1 simulation on 1 core: 
#>  Completed 1 simulation in 2S

sim_yskip
#> $simulation
#> $simulation$flo_out
#> # A tibble: 1,035 × 2
#>    date        run_1
#>    <date>      <dbl>
#>  1 2003-01-01 0.0925
#>  2 2003-01-02 0.0907
#>  3 2003-01-03 0.0902
#>  4 2003-01-04 0.0901
#>  5 2003-01-05 0.0913
#>  6 2003-01-06 0.0911
#>  7 2003-01-07 0.0921
#>  8 2003-01-08 0.0917
#>  9 2003-01-09 0.0924
#> 10 2003-01-10 0.0930
#> # … with 1,025 more rows
…
sim_stprint
#> $simulation
#> $simulation$flo_out
#> # A tibble: 731 × 2
#>    date        run_1
#>    <date>      <dbl>
#>  1 2003-11-01 0.0347
#>  2 2003-11-02 0.0346
#>  3 2003-11-03 0.0354
#>  4 2003-11-04 0.0373
#>  5 2003-11-05 0.0364
#>  6 2003-11-06 0.0362
#>  7 2003-11-07 0.0369
#>  8 2003-11-08 0.0375
#>  9 2003-11-09 0.0371
#> 10 2003-11-10 0.0376
#> # … with 721 more rows
…
q_simn_sub still stores all 16 parameter combinations
although we used only four and q_simn_sub1 only got the
information on four parameter combinations. Further, the naming of the
simulation runs is different in the two examples as shown below for the
results of qsur.

q_simn_sub$simulation$q_sur
#> # A tibble: 3,653 × 5
#>    date       run_03 run_04 run_05 run_07
#>    <date>      <dbl>  <dbl>  <dbl>  <dbl>
#>  1 2003-01-01  0.307  0.189  0.507  0.186
#>  2 2003-01-02  0.065  0.036  0.139  0.058
#>  3 2003-01-03  0.015  0.008  0.052  0.026
#>  4 2003-01-04  0.004  0.002  0.025  0.014
#>  5 2003-01-05  0.001  0.001  0.014  0.009
#>  6 2003-01-06  0      0      0.009  0.005
#>  7 2003-01-07  0      0      0.006  0.003
#>  8 2003-01-08  0      0      0.004  0.002
#>  9 2003-01-09  0      0      0.002  0.001
#> 10 2003-01-10  0      0      0.002  0.001
#> # … with 3,643 more rows

q_simn_sub1$simulation$q_sur
#> # A tibble: 3,653 × 5
#>    date       run_1 run_2 run_3 run_4
#>    <date>     <dbl> <dbl> <dbl> <dbl>
#>  1 2003-01-01 0.307 0.189 0.507 0.186
#>  2 2003-01-02 0.065 0.036 0.139 0.058
#>  3 2003-01-03 0.015 0.008 0.052 0.026
#>  4 2003-01-04 0.004 0.002 0.025 0.014
#>  5 2003-01-05 0.001 0.001 0.014 0.009
#>  6 2003-01-06 0     0     0.009 0.005
#>  7 2003-01-07 0     0     0.006 0.003
#>  8 2003-01-08 0     0     0.004 0.002
#>  9 2003-01-09 0     0     0.002 0.001
#> 10 2003-01-10 0     0     0.002 0.001
#> # … with 3,643 more rows
…
