Exploring SWATplusR • SWATplusR
…
# Loading a SWAT2012 demo project
path_2012 <- load_demo(dataset = "project",
                       swat_version = "2012",
                       path = demo_path)

Here load_demo() loads a demo project data set and saves it in the defined demo_path. Additionally, the function returns the final demo project path (path_plus and path_2012) as a character string back to R. This path is directly usable to run the SWAT model in that path.

Observation data

SWATplusR also provides observation data of daily discharge records at the main outlet of the demo for the time period 1968-01-01 until 2012-12-31. The data set is useful for the model evaluation of a demo project. You can load the observation data as follows:

q_obs <- load_demo(dataset = "observation")

q_obs
#> # A tibble: 16,437 x 2
#>    date       q_out
#>    <date>     <dbl>
#>  1 1968-01-01 0.16 
#>  2 1968-01-02 0.570
#>  3 1968-01-03 0.61 
#>  4 1968-01-04 0.37 
#>  5 1968-01-05 0.25 
#>  6 1968-01-06 0.2  
#>  7 1968-01-07 0.21 
#>  8 1968-01-08 0.22 
#>  9 1968-01-09 0.18 
#> 10 1968-01-10 0.34 
#> # ... with 16,427 more rows
…
